<?xml version="1.0" encoding="UTF-8"?>
<svg width="33px" height="42px" viewBox="0 0 33 42" version="1.1" xmlns="http://www.w3.org/2000/svg" xmlns:xlink="http://www.w3.org/1999/xlink">
    <!-- Generator: Sketch 52.5 (67469) - http://www.bohemiancoding.com/sketch -->
    <title>Icon / Illustration / Green / Docs</title>
    <desc>Created with Sketch.</desc>
    <g id="Desktop" stroke="none" stroke-width="1" fill="none" fill-rule="evenodd">
        <g id="project_item_desktop_1440" transform="translate(-182.000000, -1488.000000)" stroke="#9B9B9B">
            <g id="Info" transform="translate(159.000000, 1460.000000)">
                <g id="Icon-/-Illustration-/-Green-/-Docs" transform="translate(24.000000, 29.000000)">
                    <g id="Layer_1">
                        <g stroke-width="2">
                            <polygon id="Shape" points="25.1351351 14.5833333 18.222973 6.66666667 0 6.66666667 0 40 25.1351351 40"></polygon>
                            <polyline id="Shape" points="17.5945946 6.66666667 17.5945946 15 25.1351351 15"></polyline>
                            <polyline id="Shape" points="25.1351351 33.3333333 31 33.3333333 31 7.91666667 24.5067568 0 5.86486486 0 5.86486486 6.66666667"></polyline>
                            <polyline id="Shape" points="24.2972973 0 24.2972973 8.33333333 31 8.33333333"></polyline>
                            <path d="M5.02702703,20.8333333 L20.1081081,20.8333333" id="Shape"></path>
                            <path d="M5.02702703,25 L20.1081081,25" id="Shape"></path>
                            <path d="M5.02702703,30 L20.1081081,30" id="Shape"></path>
                        </g>
                    </g>
                </g>
            </g>
        </g>
    </g>
</svg>